extra/./98.xml	//node[ @cat and @rel="mod" and not(@cat="rel") and not(@cat="cp") and not(@cat="np") and not(@cat="advp") and not(@cat="ap") and not(@cat="ppart") and not(@cat="pp") and not(@cat="mwu") and not(@cat="conj") and not(@cat="oti") and not(@cat="du") and not(@cat="smain") and not(@cat="whrel") and not(@cat="ti") and not(@cat="sv1") and not(@cat="ppres")]	unexpected mod-category.   Expected cats: rel cp np advp ap ppart pp mwu conj oti du smain whrel ti sv1 ppres
extra/./112.xml	//node[../@cat="mwu" and not(@end = ../@end) and not(@end = ../node/@begin)]	MWU with hole in it?
extra/./403.xml	//node[ @cat and @rel="predm" and not(@cat="advp") and not(@cat="np") and not(@cat="ap") and not(@cat="ppart") and not(@cat="ppres") and not(@cat="cp") and not(@cat="pp") and not(@cat="conj") and not(@cat="mwu") and not(@cat="whrel")]	unexpected predm-category.   Expected cats: advp np ap ppart ppres cp pp conj mwu whrel
