././7.xml	//node[@rel="whd" and not(@index)]	whd without index?
././8.xml	//node[@rel="whd" and not(@index)]	whd without index?
././9.xml	//node[@rel="whd" and not(@index)]	whd without index?
././10.xml	//node[@rel="whd" and not(@index)]	whd without index?
././42.xml	//node[ @cat and @rel="mod" and not(@cat="rel") and not(@cat="cp") and not(@cat="np") and not(@cat="advp") and not(@cat="ap") and not(@cat="ppart") and not(@cat="pp") and not(@cat="mwu") and not(@cat="conj") and not(@cat="oti") and not(@cat="du") and not(@cat="smain") and not(@cat="whrel") and not(@cat="ti") and not(@cat="sv1") and not(@cat="ppres")]	unexpected mod-category.   Expected cats: rel cp np advp ap ppart pp mwu conj oti du smain whrel ti sv1 ppres
././139.xml	//node[@rel="whd" and not(@index)]	whd without index?
././140.xml	//node[@rel="whd" and not(@index)]	whd without index?
././153.xml	//node[../@cat="mwu" and not(@end = ../@end) and not(@end = ../node/@begin)]	MWU with hole in it?
././221.xml	//node[@rel="whd" and @pos and not(@vwtype="vb" or @pt="bw" or @root="hoeveel")]	whd without wh postag?
././244.xml	//node[ @cat and @rel="mod" and not(@cat="rel") and not(@cat="cp") and not(@cat="np") and not(@cat="advp") and not(@cat="ap") and not(@cat="ppart") and not(@cat="pp") and not(@cat="mwu") and not(@cat="conj") and not(@cat="oti") and not(@cat="du") and not(@cat="smain") and not(@cat="whrel") and not(@cat="ti") and not(@cat="sv1") and not(@cat="ppres")]	unexpected mod-category.   Expected cats: rel cp np advp ap ppart pp mwu conj oti du smain whrel ti sv1 ppres
././250.xml	//node[ ../@cat="whq" and not(@rel="whd") and not(@rel="body")]	unexpected whq-daughter.   Expected rels: whd body
././250.xml	//node[../node[@rel="whd"] and not(@rel="body") and not(@rel="whd")]	unexpected whd-sister.   Expected rels: body whd
././250.xml	//node[@rel="whd" and not(@index)]	whd without index?
././394.xml	//node[../@cat="mwu" and not(@end = ../@end) and not(@end = ../node/@begin)]	MWU with hole in it?
